module library

go 1.17

require (
	github.com/gofiber/fiber v1.14.6
	github.com/gofiber/fiber/v2 v2.39.0
	github.com/gofiber/helmet/v2 v2.2.18
	github.com/google/uuid v1.3.0
	github.com/kelseyhightower/envconfig v1.4.0
	golang.org/x/sync v0.1.0
	gorm.io/driver/postgres v1.4.5
	gorm.io/gorm v1.24.1-0.20221019064659-5dd2bb482755
)

require (
	github.com/andybalholm/brotli v1.0.4 // indirect
	github.com/gofiber/utils v0.0.10 // indirect
	github.com/gorilla/schema v1.1.0 // indirect
	github.com/jackc/chunkreader/v2 v2.0.1 // indirect
	github.com/jackc/pgconn v1.13.0 // indirect
	github.com/jackc/pgio v1.0.0 // indirect
	github.com/jackc/pgpassfile v1.0.0 // indirect
	github.com/jackc/pgproto3/v2 v2.3.1 // indirect
	github.com/jackc/pgservicefile v0.0.0-20200714003250-2b9c44734f2b // indirect
	github.com/jackc/pgtype v1.12.0 // indirect
	github.com/jackc/pgx/v4 v4.17.2 // indirect
	github.com/jinzhu/inflection v1.0.0 // indirect
	github.com/jinzhu/now v1.1.4 // indirect
	github.com/klauspost/compress v1.15.0 // indirect
	github.com/mattn/go-colorable v0.1.13 // indirect
	github.com/mattn/go-isatty v0.0.16 // indirect
	github.com/mattn/go-runewidth v0.0.14 // indirect
	github.com/rivo/uniseg v0.2.0 // indirect
	github.com/valyala/bytebufferpool v1.0.0 // indirect
	github.com/valyala/fasthttp v1.40.0 // indirect
	github.com/valyala/tcplisten v1.0.0 // indirect
	golang.org/x/crypto v0.0.0-20220722155217-630584e8d5aa // indirect
	golang.org/x/sys v0.0.0-20220811171246-fbc7d0a398ab // indirect
	golang.org/x/text v0.3.7 // indirect
)
